<?xml version="1.0" encoding="UTF-8" standalone="no"?>
<!DOCTYPE svg PUBLIC "-//W3C//DTD SVG 1.1//EN" "http://www.w3.org/Graphics/SVG/1.1/DTD/svg11.dtd">
<svg width="100%" height="100%" viewBox="0 0 65 69" version="1.1" xmlns="http://www.w3.org/2000/svg" xmlns:xlink="http://www.w3.org/1999/xlink" xml:space="preserve" style="fill-rule:evenodd;clip-rule:evenodd;stroke-linejoin:round;stroke-miterlimit:1.41421;">
    <g transform="matrix(1,0,0,1,-112.131,-4267.41)">
        <g transform="matrix(1,0,0,2.6495,0,366)">
            <g id="sun.-Sea.-Icon" transform="matrix(1.14485,0,0,0.4321,-402.142,1219.46)">
                <path d="M485.173,645.293L469.289,645.293C469.164,645.29 469.041,645.284 468.917,645.265C468.67,645.228 468.429,645.154 468.204,645.046C467.905,644.901 467.635,644.697 467.415,644.447C467.222,644.229 467.068,643.977 466.962,643.706C466.871,643.474 466.815,643.229 466.796,642.98C466.778,642.731 466.796,642.48 466.852,642.237C467.01,641.543 467.468,640.938 468.094,640.598C468.349,640.458 468.629,640.364 468.917,640.321C469.041,640.302 469.164,640.296 469.289,640.293C474.625,640.293 479.963,640.163 485.297,640.296C485.422,640.306 485.545,640.318 485.668,640.343C485.953,640.4 486.228,640.508 486.476,640.66C486.689,640.79 486.882,640.952 487.047,641.139C487.49,641.641 487.716,642.313 487.666,642.98C487.647,643.229 487.591,643.474 487.5,643.706C487.394,643.977 487.24,644.229 487.047,644.447C486.827,644.697 486.557,644.901 486.258,645.046C486.033,645.154 485.792,645.228 485.545,645.265C485.421,645.284 485.298,645.29 485.173,645.293ZM467.712,631.844C468.082,631.859 468.442,631.944 468.773,632.112C469.005,632.229 469.219,632.382 469.403,632.564C469.573,632.731 469.718,632.923 469.833,633.131C470.182,633.76 470.242,634.526 469.995,635.202C469.891,635.487 469.735,635.752 469.536,635.981C469.324,636.226 469.063,636.429 468.773,636.575C468.442,636.742 468.082,636.828 467.712,636.843C466.258,636.862 464.804,636.862 463.35,636.843C462.98,636.828 462.62,636.742 462.289,636.575C462.076,636.468 461.879,636.33 461.706,636.168C461.18,635.676 460.889,634.965 460.917,634.246C460.927,633.987 460.978,633.729 461.067,633.485C461.171,633.2 461.327,632.935 461.526,632.706C461.738,632.461 461.999,632.258 462.289,632.112C462.62,631.944 462.98,631.859 463.35,631.844C464.804,631.825 466.258,631.825 467.712,631.844ZM490.616,636.843L474.939,636.843C474.814,636.84 474.69,636.834 474.566,636.816C474.32,636.778 474.079,636.704 473.854,636.596C473.555,636.452 473.285,636.247 473.065,635.998C472.872,635.78 472.718,635.528 472.612,635.257C472.521,635.025 472.465,634.779 472.446,634.53C472.393,633.821 472.652,633.107 473.149,632.598C473.323,632.419 473.524,632.267 473.743,632.148C473.999,632.009 474.279,631.915 474.566,631.871C474.69,631.853 474.814,631.847 474.939,631.843C480.206,631.843 485.475,631.715 490.74,631.847C490.865,631.856 490.988,631.868 491.111,631.893C491.356,631.942 491.592,632.029 491.811,632.148C492.104,632.307 492.363,632.525 492.57,632.785C492.752,633.012 492.893,633.271 492.986,633.547C493.065,633.784 493.109,634.032 493.115,634.281C493.132,634.95 492.873,635.61 492.405,636.089C492.231,636.268 492.03,636.42 491.811,636.539C491.556,636.678 491.276,636.772 490.988,636.816C490.864,636.834 490.741,636.84 490.616,636.843ZM502.835,623.731C503.205,623.745 503.565,623.831 503.896,623.998C504.128,624.115 504.341,624.268 504.526,624.451C504.696,624.618 504.841,624.809 504.956,625.018C505.305,625.647 505.365,626.413 505.118,627.088C505.014,627.373 504.858,627.638 504.659,627.867C504.447,628.113 504.186,628.316 503.896,628.462C503.565,628.629 503.205,628.715 502.835,628.729C501.381,628.748 499.927,628.748 498.473,628.729C498.103,628.715 497.743,628.629 497.412,628.462C497.122,628.316 496.861,628.113 496.649,627.867C496.45,627.638 496.294,627.373 496.19,627.088C496.101,626.845 496.05,626.587 496.04,626.327C496.031,626.089 496.056,625.85 496.114,625.62C496.289,624.922 496.769,624.322 497.412,623.998C497.743,623.831 498.103,623.745 498.473,623.731C499.927,623.712 501.381,623.712 502.835,623.731ZM491.385,628.73L451.967,628.73C451.901,628.727 451.836,628.727 451.77,628.722C451.64,628.712 451.51,628.691 451.383,628.661C450.937,628.554 450.523,628.322 450.199,627.998C450.014,627.813 449.858,627.598 449.739,627.365C449.379,626.658 449.379,625.802 449.739,625.095C449.858,624.862 450.014,624.647 450.199,624.462C450.384,624.277 450.598,624.121 450.832,624.002C451.065,623.884 451.317,623.802 451.575,623.761C451.748,623.733 451.792,623.737 451.967,623.73L491.385,623.73C491.451,623.733 491.516,623.735 491.581,623.738C491.646,623.745 491.712,623.751 491.776,623.761C491.906,623.781 492.033,623.812 492.158,623.852C492.594,623.994 492.988,624.257 493.286,624.606C493.456,624.805 493.595,625.031 493.695,625.273C493.973,625.944 493.942,626.718 493.613,627.365C493.494,627.598 493.338,627.813 493.153,627.998C492.968,628.183 492.753,628.339 492.52,628.457C492.287,628.576 492.035,628.658 491.776,628.699C491.604,628.727 491.559,628.723 491.385,628.73ZM470.586,620.574L464.348,620.574C464.022,619.951 463.742,619.305 463.511,618.64C463.039,617.282 462.766,615.858 462.704,614.421C462.637,612.887 462.813,611.345 463.221,609.866C463.669,608.243 464.4,606.702 465.37,605.326C465.781,604.744 466.24,604.201 466.724,603.678C466.856,603.543 466.987,603.409 467.121,603.276C467.616,602.803 468.132,602.355 468.684,601.95C469.85,601.095 471.142,600.413 472.507,599.935C474.334,599.296 476.286,599.023 478.218,599.135C480.055,599.242 481.869,599.696 483.54,600.468C485.024,601.153 486.39,602.094 487.565,603.23C488.658,604.286 489.588,605.511 490.306,606.851C491.037,608.213 491.549,609.692 491.819,611.214C492.35,614.216 491.928,617.371 490.612,620.122C490.539,620.274 490.464,620.424 490.386,620.574L484.149,620.574L484.156,620.567C485.11,619.61 485.86,618.455 486.338,617.191C486.682,616.283 486.885,615.321 486.942,614.352C486.995,613.445 486.919,612.531 486.718,611.646C486.486,610.627 486.086,609.649 485.538,608.759C484.911,607.739 484.088,606.838 483.131,606.118C482.478,605.626 481.762,605.22 481.006,604.91C479.965,604.484 478.849,604.246 477.726,604.206C476.513,604.163 475.293,604.345 474.148,604.75C473.194,605.087 472.303,605.581 471.501,606.196C471.233,606.401 470.982,606.626 470.736,606.857C470.615,606.974 470.616,606.974 470.497,607.093C470.208,607.398 469.93,607.713 469.678,608.049C469.079,608.849 468.606,609.746 468.286,610.694C467.897,611.844 467.73,613.066 467.791,614.278C467.849,615.436 468.115,616.581 468.58,617.643C468.909,618.394 469.335,619.1 469.844,619.743C470.075,620.034 470.323,620.312 470.586,620.574ZM495.295,611.872C495.597,611.619 495.944,611.426 496.327,611.326C496.509,611.279 496.693,611.258 496.88,611.246C497.399,611.239 497.918,611.233 498.438,611.228C499.983,611.219 501.527,611.226 503.072,611.246C503.148,611.251 503.223,611.257 503.298,611.266C503.443,611.286 503.585,611.314 503.725,611.355C503.952,611.423 504.169,611.523 504.367,611.652C504.635,611.826 504.869,612.051 505.055,612.311C505.239,612.569 505.375,612.861 505.453,613.168C505.519,613.429 505.544,613.7 505.525,613.968C505.507,614.22 505.451,614.469 505.36,614.704C505.12,615.329 504.628,615.844 504.015,616.115C503.715,616.247 503.397,616.311 503.071,616.33C502.553,616.337 502.034,616.343 501.515,616.348C499.972,616.358 498.429,616.352 496.885,616.33C496.819,616.327 496.753,616.321 496.687,616.315C496.341,616.271 496.008,616.17 495.704,615.996C495.456,615.854 495.231,615.671 495.044,615.454C494.488,614.809 494.285,613.9 494.523,613.081C494.639,612.681 494.856,612.32 495.141,612.018C495.216,611.943 495.215,611.943 495.295,611.872ZM450.098,611.853C450.235,611.741 450.377,611.638 450.533,611.553C450.78,611.42 451.049,611.329 451.326,611.282C451.437,611.263 451.549,611.253 451.661,611.246C452.181,611.239 452.7,611.233 453.219,611.228C454.764,611.219 456.307,611.225 457.852,611.246C457.923,611.25 457.994,611.256 458.065,611.264C458.341,611.301 458.609,611.372 458.861,611.491C459.489,611.791 459.978,612.348 460.19,613.011C460.261,613.234 460.301,613.467 460.308,613.701C460.317,613.961 460.285,614.222 460.215,614.472C460.129,614.78 459.987,615.071 459.794,615.326C459.599,615.583 459.356,615.801 459.08,615.967C458.751,616.165 458.385,616.278 458.004,616.319L457.934,616.325L457.853,616.33C457.334,616.337 456.815,616.343 456.296,616.348C454.751,616.358 453.207,616.351 451.663,616.33C451.587,616.326 451.513,616.32 451.438,616.311C451.084,616.263 450.743,616.152 450.436,615.967C450.162,615.803 449.919,615.586 449.726,615.332C449.28,614.746 449.107,613.972 449.261,613.253C449.343,612.87 449.517,612.521 449.753,612.211L449.79,612.165C449.853,612.089 449.854,612.09 449.922,612.018C450.007,611.933 450.007,611.933 450.098,611.853ZM491.81,595.71C492.455,595.07 493.104,594.435 493.757,593.804C493.815,593.753 493.874,593.704 493.935,593.657C494.23,593.437 494.559,593.274 494.918,593.192C495.249,593.117 495.593,593.108 495.927,593.168C496.236,593.223 496.534,593.337 496.803,593.501C497.046,593.648 497.265,593.837 497.446,594.056C497.614,594.26 497.75,594.489 497.847,594.734C498.068,595.292 498.085,595.923 497.891,596.491C497.775,596.83 497.585,597.13 497.351,597.398C496.899,597.866 496.445,598.332 495.989,598.796C495.083,599.712 494.169,600.618 493.245,601.515L492.952,601.797C492.683,602.031 492.384,602.221 492.045,602.337C491.421,602.551 490.714,602.51 490.12,602.22C489.886,602.106 489.671,601.958 489.482,601.779C489.275,601.583 489.102,601.353 488.97,601.101C488.825,600.82 488.731,600.514 488.697,600.2C488.661,599.863 488.693,599.519 488.791,599.195C488.865,598.949 488.978,598.716 489.122,598.503C489.194,598.398 489.274,598.299 489.358,598.203C489.81,597.735 490.264,597.269 490.72,596.805C491.082,596.439 491.446,596.074 491.81,595.71ZM457.525,593.804C457.605,593.735 457.685,593.667 457.77,593.606C457.915,593.502 458.069,593.414 458.231,593.342C458.898,593.045 459.7,593.061 460.357,593.382C460.584,593.493 460.786,593.638 460.977,593.803C461.445,594.256 461.911,594.71 462.375,595.167C463.291,596.071 464.197,596.987 465.094,597.91L465.376,598.203C465.63,598.494 465.831,598.823 465.943,599.195C466.042,599.519 466.074,599.862 466.037,600.199C466.004,600.514 465.91,600.822 465.763,601.102C465.632,601.354 465.459,601.583 465.253,601.779C465.085,601.938 464.895,602.074 464.691,602.182C464.057,602.515 463.292,602.564 462.621,602.313C462.309,602.196 462.033,602.015 461.783,601.797C461.314,601.346 460.848,600.891 460.385,600.435C459.468,599.53 458.563,598.615 457.666,597.691L457.382,597.397C457.313,597.317 457.246,597.238 457.185,597.152C457.081,597.008 456.994,596.854 456.921,596.692C456.624,596.024 456.64,595.222 456.961,594.566C457.072,594.338 457.218,594.136 457.383,593.945C457.453,593.873 457.453,593.873 457.525,593.804ZM475.626,586.315C475.924,586.047 476.27,585.837 476.658,585.725C476.94,585.644 477.237,585.612 477.53,585.632C478.138,585.673 478.726,585.933 479.16,586.364C479.322,586.525 479.463,586.709 479.577,586.908C479.717,587.154 479.814,587.424 479.866,587.703C479.889,587.829 479.901,587.955 479.909,588.083C479.916,588.602 479.922,589.121 479.927,589.64C479.937,591.185 479.93,592.729 479.909,594.274C479.905,594.35 479.898,594.425 479.89,594.501C479.839,594.855 479.731,595.195 479.545,595.503C479.363,595.804 479.12,596.066 478.832,596.268C478.571,596.451 478.277,596.583 477.967,596.658C477.687,596.726 477.394,596.747 477.107,596.718C476.932,596.701 476.758,596.665 476.59,596.611C475.904,596.391 475.329,595.875 475.04,595.215C474.909,594.916 474.846,594.6 474.825,594.275C474.818,593.756 474.812,593.237 474.807,592.718C474.797,591.172 474.805,589.627 474.825,588.082C474.832,587.969 474.832,587.97 474.844,587.857C474.861,587.724 474.886,587.592 474.924,587.463C475.029,587.101 475.217,586.764 475.465,586.481C475.517,586.424 475.571,586.369 475.626,586.315Z" style="fill:white;"/>
            </g>
        </g>
    </g>
</svg>
