<?xml version="1.0" encoding="UTF-8" standalone="no"?>
<!DOCTYPE svg PUBLIC "-//W3C//DTD SVG 1.1//EN" "http://www.w3.org/Graphics/SVG/1.1/DTD/svg11.dtd">
<svg width="100%" height="100%" viewBox="0 0 66 66" version="1.1" xmlns="http://www.w3.org/2000/svg" xmlns:xlink="http://www.w3.org/1999/xlink" xml:space="preserve" style="fill-rule:evenodd;clip-rule:evenodd;stroke-linejoin:round;stroke-miterlimit:1.41421;">
    <g transform="matrix(1,0,0,1,-111.546,-4649.15)">
        <g transform="matrix(1,0,0,2.6495,0,366)">
            <g id="alarm.-clock-.-Icon" transform="matrix(1.14485,0,0,0.4321,-402.38,1417.93)">
                <path d="M491.353,508.943C491.553,508.948 491.752,508.972 491.946,509.022C492.334,509.122 492.696,509.317 492.993,509.584C493.116,509.694 493.224,509.816 493.324,509.946C494.071,510.968 494.806,511.997 495.53,513.035C495.733,513.339 495.873,513.678 495.932,514.04C495.973,514.291 495.975,514.548 495.939,514.8C495.837,515.507 495.427,516.15 494.828,516.539C494.63,516.668 494.413,516.768 494.187,516.837C493.891,516.926 493.579,516.96 493.27,516.936C492.944,516.91 492.623,516.82 492.331,516.671C492.005,516.505 491.724,516.269 491.496,515.984C490.716,514.964 489.991,513.904 489.256,512.852C489.064,512.563 488.928,512.242 488.864,511.9C488.821,511.668 488.811,511.43 488.834,511.194C488.858,510.959 488.915,510.727 489.003,510.508C489.229,509.949 489.657,509.483 490.195,509.212C490.489,509.063 490.807,508.978 491.135,508.95C491.208,508.946 491.28,508.943 491.353,508.943ZM464.219,508.944C464.566,508.959 464.905,509.038 465.219,509.187C465.432,509.289 465.631,509.422 465.807,509.579C465.983,509.737 466.137,509.919 466.262,510.12C466.601,510.663 466.719,511.328 466.588,511.954C466.521,512.276 466.389,512.578 466.207,512.852C465.482,513.889 464.747,514.919 464,515.94C463.778,516.231 463.503,516.473 463.18,516.646C462.891,516.801 462.573,516.898 462.247,516.931C461.939,516.962 461.626,516.935 461.328,516.852C461.083,516.784 460.849,516.678 460.635,516.539C460.036,516.15 459.626,515.507 459.524,514.8C459.49,514.566 459.49,514.328 459.523,514.094C459.574,513.731 459.706,513.389 459.902,513.08C460.614,512.012 461.382,510.982 462.139,509.946C462.238,509.816 462.347,509.694 462.469,509.584C462.767,509.317 463.129,509.122 463.517,509.022C463.711,508.972 463.909,508.948 464.11,508.943C464.165,508.943 464.164,508.943 464.219,508.944ZM477.521,463.095C478.709,463.106 479.894,463.196 481.068,463.375C483.245,463.708 485.376,464.34 487.383,465.248C489.834,466.357 492.097,467.876 494.055,469.721C496.009,471.562 497.657,473.724 498.91,476.098C500.026,478.212 500.827,480.491 501.277,482.839C501.772,485.422 501.846,488.085 501.498,490.692C501.166,493.174 500.447,495.602 499.373,497.864C498.136,500.469 496.434,502.848 494.371,504.863C492.2,506.983 489.635,508.693 486.84,509.876C483.898,511.121 480.716,511.771 477.521,511.791C474.321,511.812 471.126,511.201 468.163,509.99C465.352,508.841 462.765,507.16 460.568,505.065C458.482,503.076 456.752,500.719 455.484,498.131C454.384,495.885 453.636,493.47 453.274,490.995C452.892,488.393 452.933,485.727 453.396,483.138C453.809,480.83 454.559,478.584 455.616,476.491C456.826,474.093 458.436,471.9 460.358,470.024C462.317,468.111 464.596,466.531 467.077,465.372C469.07,464.441 471.189,463.783 473.359,463.423C474.528,463.229 475.709,463.125 476.894,463.099C477.103,463.096 477.312,463.094 477.521,463.095ZM477.239,468.095C476.294,468.104 475.351,468.175 474.417,468.318C472.689,468.582 470.999,469.083 469.407,469.804C467.458,470.685 465.66,471.893 464.103,473.36C462.577,474.798 461.285,476.481 460.295,478.329C459.4,480 458.754,481.803 458.385,483.662C457.963,485.794 457.902,487.998 458.204,490.15C458.474,492.078 459.038,493.962 459.873,495.72C460.856,497.792 462.211,499.683 463.851,501.285C465.577,502.97 467.616,504.331 469.838,505.272C472.175,506.261 474.702,506.775 477.239,506.792C479.781,506.808 482.32,506.324 484.674,505.362C486.908,504.449 488.964,503.112 490.71,501.447C492.397,499.838 493.793,497.926 494.805,495.826C495.65,494.074 496.226,492.195 496.508,490.271C496.823,488.12 496.776,485.915 496.367,483.78C496.009,481.918 495.374,480.11 494.489,478.433C493.509,476.579 492.228,474.887 490.71,473.44C489.191,471.991 487.437,470.79 485.535,469.902C483.954,469.163 482.273,468.642 480.551,468.356C479.621,468.202 478.682,468.119 477.74,468.098C477.573,468.095 477.406,468.094 477.239,468.095ZM486.414,489.979L474.816,489.979L474.816,479.479L474.818,479.385C474.832,479.131 474.875,478.884 474.96,478.644C475.204,477.955 475.752,477.397 476.436,477.139C476.705,477.038 476.983,476.991 477.269,476.98C477.363,476.98 477.363,476.98 477.458,476.983C477.711,477.002 477.958,477.05 478.196,477.139C478.88,477.397 479.428,477.955 479.672,478.644C479.768,478.914 479.811,479.194 479.816,479.479L479.816,484.979L486.414,484.979L486.509,484.981C486.635,484.988 486.76,485 486.885,485.024C487.133,485.071 487.373,485.157 487.596,485.276C487.874,485.425 488.123,485.627 488.326,485.868C488.53,486.11 488.686,486.389 488.786,486.689C489.007,487.352 488.937,488.092 488.595,488.702C488.487,488.894 488.354,489.073 488.199,489.23C488.022,489.41 487.818,489.563 487.596,489.683C487.345,489.817 487.072,489.908 486.792,489.951C486.666,489.97 486.541,489.977 486.414,489.979ZM496.417,459.777C496.87,459.806 497.319,459.866 497.762,459.967C498.757,460.194 499.708,460.61 500.549,461.19C501.027,461.519 501.464,461.901 501.864,462.322C502.648,463.168 503.426,464.02 504.199,464.876C504.715,465.463 505.152,466.113 505.485,466.822C505.875,467.652 506.121,468.549 506.211,469.462C506.317,470.527 506.209,471.61 505.897,472.633C505.617,473.552 505.172,474.419 504.587,475.181C504.401,475.425 504.201,475.657 503.988,475.878C503.917,475.953 503.843,476.026 503.769,476.098C503.731,476.134 503.696,476.173 503.655,476.205C503.645,476.212 503.673,476.187 503.681,476.178L503.606,476.25C503.527,476.318 503.447,476.383 503.361,476.442C503.102,476.617 502.808,476.738 502.501,476.793C502.296,476.831 502.087,476.839 501.88,476.819C501.673,476.799 501.469,476.75 501.275,476.674C500.757,476.47 500.325,476.073 500.079,475.573C499.972,475.355 499.901,475.12 499.868,474.88C499.794,474.328 499.931,473.757 500.248,473.299C500.327,473.185 500.418,473.081 500.515,472.981C500.59,472.904 500.672,472.833 500.747,472.756C500.81,472.69 500.871,472.622 500.93,472.552C501.154,472.277 501.34,471.974 501.476,471.646C501.832,470.788 501.842,469.8 501.499,468.936C501.355,468.574 501.151,468.24 500.901,467.941C500.166,467.084 499.38,466.273 498.618,465.44C498.349,465.15 498.042,464.901 497.695,464.71C496.789,464.21 495.683,464.128 494.712,464.485C494.406,464.598 494.117,464.753 493.853,464.944C493.728,465.034 493.612,465.135 493.497,465.237L493.417,465.303C493.334,465.367 493.251,465.427 493.161,465.481C492.922,465.623 492.658,465.719 492.384,465.765C492.179,465.8 491.97,465.806 491.763,465.783C491.068,465.706 490.435,465.298 490.077,464.696C489.953,464.488 489.863,464.259 489.812,464.022C489.753,463.751 489.746,463.469 489.789,463.195C489.848,462.818 490.005,462.459 490.241,462.158C490.327,462.048 490.424,461.951 490.526,461.857C490.529,461.853 490.512,461.869 490.515,461.866C490.737,461.664 490.971,461.475 491.214,461.299C492.13,460.635 493.183,460.169 494.29,459.937C494.831,459.823 495.38,459.769 495.933,459.764C496.094,459.765 496.256,459.769 496.417,459.777ZM459.099,459.818C459.618,459.813 460.135,459.85 460.646,459.941C461.855,460.154 463.009,460.645 464.001,461.369C464.271,461.566 464.528,461.78 464.772,462.008C464.775,462.011 464.758,461.995 464.761,461.999C464.862,462.095 464.957,462.194 465.042,462.305C465.251,462.581 465.395,462.906 465.46,463.247C465.498,463.451 465.508,463.661 465.489,463.868C465.429,464.529 465.071,465.142 464.524,465.518C464.324,465.656 464.102,465.76 463.869,465.827C463.635,465.894 463.391,465.923 463.149,465.912C462.733,465.894 462.325,465.758 461.981,465.523C461.817,465.411 461.679,465.272 461.529,465.145C461.458,465.087 461.386,465.031 461.311,464.978C461.033,464.782 460.731,464.625 460.41,464.514C459.517,464.206 458.515,464.264 457.664,464.675C457.313,464.845 456.995,465.073 456.715,465.344C455.914,466.14 455.163,466.984 454.388,467.804C454.119,468.093 453.893,468.418 453.728,468.778C453.29,469.731 453.295,470.859 453.74,471.809C453.933,472.221 454.205,472.586 454.533,472.901C454.535,472.902 454.527,472.895 454.529,472.896C454.553,472.921 454.578,472.945 454.603,472.969L454.673,473.046C454.74,473.126 454.805,473.206 454.862,473.293C455.034,473.554 455.15,473.85 455.202,474.158C455.237,474.363 455.243,474.572 455.22,474.779C455.159,475.333 454.888,475.853 454.47,476.221C454.314,476.359 454.139,476.474 453.951,476.563C453.732,476.668 453.496,476.736 453.255,476.765C452.98,476.799 452.699,476.781 452.43,476.713C452.127,476.636 451.842,476.496 451.596,476.303C451.514,476.239 451.438,476.168 451.363,476.095C451.264,475.999 451.167,475.901 451.073,475.8C450.635,475.33 450.253,474.809 449.938,474.249C449.568,473.591 449.291,472.881 449.118,472.146C448.721,470.464 448.875,468.67 449.557,467.082C449.809,466.496 450.131,465.94 450.513,465.43C450.678,465.209 450.856,464.999 451.041,464.796C451.827,463.952 452.62,463.113 453.417,462.28C453.824,461.865 454.267,461.491 454.751,461.169C455.574,460.621 456.497,460.228 457.462,460.012C457.874,459.921 458.291,459.863 458.711,459.834C458.84,459.826 458.969,459.821 459.099,459.818Z" style="fill:white;"/>
            </g>
        </g>
    </g>
</svg>
